MPISize: 1
graphSize: 2
probability: 0.500000
Graph A:
1
1
1
1
Graph B:
0
0
0
0
Graph Gen:     0.000014s 
4 4 
Operator C Gen:     0.000011s 
operatorB2.gz
Operator B Gen:     0.000220s 
Nelder-Mead 1
Initial Simplex: 
3.091593 1.520796 :4.000000
3.191593 1.520796 :4.000000
3.091593 1.620796 :4.000000
Initial Simplex     0.016296s 
3.091593 1.520796 :4.000000
3.141593 1.520796 :4.000000
1.545796 0.760398 :4.000000
B 4.000000     0.059819s 
The minimum was found at
3.091593 1.520796 
Best 4.000000
Probabilities:
0.500000
0.500000
Nelder-Mead 2
Initial Simplex: 
3.091593 3.091593 1.520796 1.520796 :4.000000
3.191593 3.091593 1.520796 1.520796 :4.000000
3.091593 3.191593 1.520796 1.520796 :4.000000
3.091593 3.091593 1.620796 1.520796 :4.000000
3.091593 3.091593 1.520796 1.620796 :4.000000
Initial Simplex     0.053400s 
3.091593 3.091593 1.520796 1.520796 :4.000000
3.191593 3.091593 1.520796 1.520796 :4.000000
3.091593 3.191593 1.520796 1.520796 :4.000000
1.558296 1.558296 0.760398 0.772898 :4.000000
3.091593 3.091593 1.520796 1.620796 :4.000000
B 4.000000     0.087251s 
The minimum was found at
3.091593 3.091593 1.520796 1.520796 
Best 4.000000
Probabilities:
0.500000
0.500000
Nelder-Mead 3
Initial Simplex: 
3.091593 3.091593 3.091593 1.520796 1.520796 1.520796 :4.000000
3.191593 3.091593 3.091593 1.520796 1.520796 1.520796 :4.000000
3.091593 3.191593 3.091593 1.520796 1.520796 1.520796 :4.000000
3.091593 3.091593 3.191593 1.520796 1.520796 1.520796 :4.000000
3.091593 3.091593 3.091593 1.620796 1.520796 1.520796 :4.000000
3.091593 3.091593 3.091593 1.520796 1.620796 1.520796 :4.000000
3.091593 3.091593 3.091593 1.520796 1.520796 1.620796 :4.000000
Initial Simplex     0.107779s 
3.091593 3.091593 3.091593 1.520796 1.520796 1.520796 :4.000000
3.191593 3.091593 3.091593 1.520796 1.520796 1.520796 :4.000000
3.091593 3.191593 3.091593 1.520796 1.520796 1.520796 :4.000000
3.091593 3.091593 3.191593 1.520796 1.520796 1.520796 :4.000000
3.124926 3.124926 3.124926 1.420796 1.554130 1.554130 :4.000000
3.091593 3.091593 3.091593 1.520796 1.620796 1.520796 :4.000000
3.091593 3.091593 3.091593 1.520796 1.520796 1.620796 :4.000000
B 4.000000     0.133843s 
The minimum was found at
3.091593 3.091593 3.091593 1.520796 1.520796 1.520796 
Best 4.000000
Probabilities:
0.500000
0.500000
Nelder-Mead 4
Initial Simplex: 
3.091593 3.091593 3.091593 3.091593 1.520796 1.520796 1.520796 1.520796 :4.000000
3.191593 3.091593 3.091593 3.091593 1.520796 1.520796 1.520796 1.520796 :4.000000
3.091593 3.191593 3.091593 3.091593 1.520796 1.520796 1.520796 1.520796 :4.000000
3.091593 3.091593 3.191593 3.091593 1.520796 1.520796 1.520796 1.520796 :4.000000
3.091593 3.091593 3.091593 3.191593 1.520796 1.520796 1.520796 1.520796 :4.000000
3.091593 3.091593 3.091593 3.091593 1.620796 1.520796 1.520796 1.520796 :4.000000
3.091593 3.091593 3.091593 3.091593 1.520796 1.620796 1.520796 1.520796 :4.000000
3.091593 3.091593 3.091593 3.091593 1.520796 1.520796 1.620796 1.520796 :4.000000
3.091593 3.091593 3.091593 3.091593 1.520796 1.520796 1.520796 1.620796 :4.000000
Initial Simplex     0.154900s 
3.091593 3.091593 3.091593 3.091593 1.520796 1.520796 1.520796 1.520796 :4.000000
3.191593 3.091593 3.091593 3.091593 1.520796 1.520796 1.520796 1.520796 :4.000000
3.091593 3.191593 3.091593 3.091593 1.520796 1.520796 1.520796 1.520796 :4.000000
3.091593 3.091593 3.191593 3.091593 1.520796 1.520796 1.520796 1.520796 :4.000000
3.091593 3.091593 3.091593 3.191593 1.520796 1.520796 1.520796 1.520796 :4.000000
3.116593 3.116593 3.116593 3.116593 1.420796 1.545796 1.545796 1.545796 :4.000000
3.091593 3.091593 3.091593 3.091593 1.520796 1.620796 1.520796 1.520796 :4.000000
3.091593 3.091593 3.091593 3.091593 1.520796 1.520796 1.620796 1.520796 :4.000000
3.091593 3.091593 3.091593 3.091593 1.520796 1.520796 1.520796 1.620796 :4.000000
B 4.000000     0.189758s 
The minimum was found at
3.091593 3.091593 3.091593 3.091593 1.520796 1.520796 1.520796 1.520796 
Best 4.000000
Probabilities:
0.500000
0.500000
Nelder-Mead 5
Initial Simplex: 
3.091593 3.091593 3.091593 3.091593 3.091593 1.520796 1.520796 1.520796 1.520796 1.520796 :4.000000
3.191593 3.091593 3.091593 3.091593 3.091593 1.520796 1.520796 1.520796 1.520796 1.520796 :4.000000
3.091593 3.191593 3.091593 3.091593 3.091593 1.520796 1.520796 1.520796 1.520796 1.520796 :4.000000
3.091593 3.091593 3.191593 3.091593 3.091593 1.520796 1.520796 1.520796 1.520796 1.520796 :4.000000
3.091593 3.091593 3.091593 3.191593 3.091593 1.520796 1.520796 1.520796 1.520796 1.520796 :4.000000
3.091593 3.091593 3.091593 3.091593 3.191593 1.520796 1.520796 1.520796 1.520796 1.520796 :4.000000
3.091593 3.091593 3.091593 3.091593 3.091593 1.620796 1.520796 1.520796 1.520796 1.520796 :4.000000
3.091593 3.091593 3.091593 3.091593 3.091593 1.520796 1.620796 1.520796 1.520796 1.520796 :4.000000
3.091593 3.091593 3.091593 3.091593 3.091593 1.520796 1.520796 1.620796 1.520796 1.520796 :4.000000
3.091593 3.091593 3.091593 3.091593 3.091593 1.520796 1.520796 1.520796 1.620796 1.520796 :4.000000
3.091593 3.091593 3.091593 3.091593 3.091593 1.520796 1.520796 1.520796 1.520796 1.620796 :4.000000
Initial Simplex     0.233647s 
3.091593 3.091593 3.091593 3.091593 3.091593 1.520796 1.520796 1.520796 1.520796 1.520796 :4.000000
3.191593 3.091593 3.091593 3.091593 3.091593 1.520796 1.520796 1.520796 1.520796 1.520796 :4.000000
3.091593 3.191593 3.091593 3.091593 3.091593 1.520796 1.520796 1.520796 1.520796 1.520796 :4.000000
3.091593 3.091593 3.191593 3.091593 3.091593 1.520796 1.520796 1.520796 1.520796 1.520796 :4.000000
3.091593 3.091593 3.091593 3.191593 3.091593 1.520796 1.520796 1.520796 1.520796 1.520796 :4.000000
3.091593 3.091593 3.091593 3.091593 3.191593 1.520796 1.520796 1.520796 1.520796 1.520796 :4.000000
1.550796 1.550796 2.261194 2.323694 2.323694 1.533296 0.765398 0.765398 0.765398 0.765398 :4.000000
3.091593 3.091593 3.091593 3.091593 3.091593 1.520796 1.620796 1.520796 1.520796 1.520796 :4.000000
3.091593 3.091593 3.091593 3.091593 3.091593 1.520796 1.520796 1.620796 1.520796 1.520796 :4.000000
3.091593 3.091593 3.091593 3.091593 3.091593 1.520796 1.520796 1.520796 1.620796 1.520796 :4.000000
3.091593 3.091593 3.091593 3.091593 3.091593 1.520796 1.520796 1.520796 1.520796 1.620796 :4.000000
B 4.000000     0.294325s 
The minimum was found at
3.091593 3.091593 3.091593 3.091593 3.091593 1.520796 1.520796 1.520796 1.520796 1.520796 
Best 4.000000
Probabilities:
0.500000
0.500000
Nelder-Mead 6
Initial Simplex: 
3.091593 3.091593 3.091593 3.091593 3.091593 3.091593 1.520796 1.520796 1.520796 1.520796 1.520796 1.520796 :4.000000
3.191593 3.091593 3.091593 3.091593 3.091593 3.091593 1.520796 1.520796 1.520796 1.520796 1.520796 1.520796 :4.000000
3.091593 3.191593 3.091593 3.091593 3.091593 3.091593 1.520796 1.520796 1.520796 1.520796 1.520796 1.520796 :4.000000
3.091593 3.091593 3.191593 3.091593 3.091593 3.091593 1.520796 1.520796 1.520796 1.520796 1.520796 1.520796 :4.000000
3.091593 3.091593 3.091593 3.191593 3.091593 3.091593 1.520796 1.520796 1.520796 1.520796 1.520796 1.520796 :4.000000
3.091593 3.091593 3.091593 3.091593 3.191593 3.091593 1.520796 1.520796 1.520796 1.520796 1.520796 1.520796 :4.000000
3.091593 3.091593 3.091593 3.091593 3.091593 3.191593 1.520796 1.520796 1.520796 1.520796 1.520796 1.520796 :4.000000
3.091593 3.091593 3.091593 3.091593 3.091593 3.091593 1.620796 1.520796 1.520796 1.520796 1.520796 1.520796 :4.000000
3.091593 3.091593 3.091593 3.091593 3.091593 3.091593 1.520796 1.620796 1.520796 1.520796 1.520796 1.520796 :4.000000
3.091593 3.091593 3.091593 3.091593 3.091593 3.091593 1.520796 1.520796 1.620796 1.520796 1.520796 1.520796 :4.000000
3.091593 3.091593 3.091593 3.091593 3.091593 3.091593 1.520796 1.520796 1.520796 1.620796 1.520796 1.520796 :4.000000
3.091593 3.091593 3.091593 3.091593 3.091593 3.091593 1.520796 1.520796 1.520796 1.520796 1.620796 1.520796 :4.000000
3.091593 3.091593 3.091593 3.091593 3.091593 3.091593 1.520796 1.520796 1.520796 1.520796 1.520796 1.620796 :4.000000
Initial Simplex     0.330713s 
3.091593 3.091593 3.091593 3.091593 3.091593 3.091593 1.520796 1.520796 1.520796 1.520796 1.520796 1.520796 :4.000000
3.141593 3.091593 3.091593 3.091593 3.091593 3.091593 1.520796 1.520796 1.520796 1.520796 1.520796 1.520796 :4.000000
3.091593 3.141593 3.091593 3.091593 3.091593 3.091593 1.520796 1.520796 1.520796 1.520796 1.520796 1.520796 :4.000000
3.091593 3.091593 3.141593 3.091593 3.091593 3.091593 1.520796 1.520796 1.520796 1.520796 1.520796 1.520796 :4.000000
3.091593 3.091593 3.091593 3.141593 3.091593 3.091593 1.520796 1.520796 1.520796 1.520796 1.520796 1.520796 :4.000000
3.091593 3.091593 3.091593 3.091593 3.141593 3.091593 1.520796 1.520796 1.520796 1.520796 1.520796 1.520796 :4.000000
3.091593 3.091593 3.091593 3.091593 3.091593 3.141593 1.520796 1.520796 1.520796 1.520796 1.520796 1.520796 :4.000000
1.545796 1.545796 3.096593 2.306194 2.311194 2.311194 1.525796 1.525796 2.312444 0.760398 0.760398 0.760398 :4.000000
3.091593 3.091593 3.091593 3.091593 3.091593 3.091593 1.520796 1.570796 1.520796 1.520796 1.520796 1.520796 :4.000000
3.091593 3.091593 3.091593 3.091593 3.091593 3.091593 1.520796 1.520796 1.570796 1.520796 1.520796 1.520796 :4.000000
3.091593 3.091593 3.091593 3.091593 3.091593 3.091593 1.520796 1.520796 1.520796 1.570796 1.520796 1.520796 :4.000000
3.091593 3.091593 3.091593 3.091593 3.091593 3.091593 1.520796 1.520796 1.520796 1.520796 1.570796 1.520796 :4.000000
3.091593 3.091593 3.091593 3.091593 3.091593 3.091593 1.520796 1.520796 1.520796 1.520796 1.520796 1.570796 :4.000000
B 4.000000     0.812415s 
The minimum was found at
3.091593 3.091593 3.091593 3.091593 3.091593 3.091593 1.520796 1.520796 1.520796 1.520796 1.520796 1.520796 
Best 4.000000
Probabilities:
0.500000
0.500000
Monte-Carlo 1
W 0 4.000000     0.004109s 
B 0 4.000000     0.004117s 
B 1 4.000000     0.008838s 
B 2 4.000000     0.013128s 
W 4 4.000000     0.021875s 
W 6 4.000000     0.030832s 
B 10 4.000000     0.048382s 
W 50 4.000000     0.228922s 
W 119 4.000000     0.534622s 
Worst 4.000000
Best 4.000000
Probabilities:
0.500000
0.500000
Monte-Carlo 2
W 0 4.000000     0.008650s 
B 0 4.000000     0.008660s 
B 1 4.000000     0.017731s 
B 2 4.000000     0.026973s 
B 3 4.000000     0.035608s 
W 26 4.000000     0.238890s 
B 49 4.000000     0.441793s 
W 51 4.000000     0.459061s 
W 52 4.000000     0.467935s 
Worst 4.000000
Best 4.000000
Probabilities:
0.500000
0.500000
Monte-Carlo 3
W 0 4.000000     0.012987s 
B 0 4.000000     0.012997s 
B 1 4.000000     0.025895s 
W 2 4.000000     0.039034s 
W 4 4.000000     0.065531s 
B 5 4.000000     0.079508s 
W 10 4.000000     0.144700s 
B 39 4.000000     0.529434s 
W 46 4.000000     0.627553s 
W 85 4.000000     1.148306s 
B 114 4.000000     1.530969s 
Worst 4.000000
Best 4.000000
Probabilities:
0.500000
0.500000
Monte-Carlo 4
W 0 4.000000     0.017016s 
B 0 4.000000     0.017027s 
B 1 4.000000     0.034790s 
W 2 4.000000     0.052995s 
B 4 4.000000     0.088413s 
W 6 4.000000     0.123526s 
W 7 4.000000     0.141498s 
B 13 4.000000     0.247378s 
W 19 4.000000     0.353502s 
W 29 4.000000     0.527770s 
W 32 4.000000     0.579390s 
W 43 4.000000     0.774273s 
W 50 4.000000     0.929717s 
Worst 4.000000
Best 4.000000
Probabilities:
0.500000
0.500000
Monte-Carlo 5
W 0 4.000000     0.022345s 
B 0 4.000000     0.022357s 
B 1 4.000000     0.045407s 
B 2 4.000000     0.067556s 
W 3 4.000000     0.089871s 
W 4 4.000000     0.111403s 
B 5 4.000000     0.133266s 
B 6 4.000000     0.155664s 
B 7 4.000000     0.178200s 
B 9 4.000000     0.222719s 
W 12 4.000000     0.290047s 
W 45 4.000000     1.030208s 
B 46 4.000000     1.051801s 
B 53 4.000000     1.206775s 
W 63 4.000000     1.423046s 
B 72 4.000000     1.619084s 
Worst 4.000000
Best 4.000000
Probabilities:
0.500000
0.500000
Monte-Carlo 6
W 0 4.000000     0.028360s 
B 0 4.000000     0.028374s 
W 1 4.000000     0.054274s 
W 3 4.000000     0.106965s 
B 12 4.000000     0.349829s 
W 69 4.000000     1.887362s 
B 101 4.000000     2.748618s 
B 114 4.000000     3.113005s 
Worst 4.000000
Best 4.000000
Probabilities:
0.500000
0.500000
Optimisation:    13.831931s 
