MPISize: 1
graphSize: 2
probability: 0.500000
Graph A:
1
1
1
0
Graph B:
1
1
1
1
Graph Gen:     0.000012s 
1 1 
Operator C Gen:     0.000010s 
operatorB2.gz
Operator B Gen:     0.000197s 
Nelder-Mead 1
Initial Simplex: 
3.091593 1.520796 :1.000000
3.191593 1.520796 :1.000000
3.091593 1.620796 :1.000000
Initial Simplex     0.014843s 
3.091593 1.520796 :1.000000
3.141593 1.520796 :1.000000
1.545796 0.760398 :1.000000
B 1.000000     0.057749s 
The minimum was found at
3.091593 1.520796 
Best 1.000000
Probabilities:
0.500000
0.500000
Nelder-Mead 2
Initial Simplex: 
3.091593 3.091593 1.520796 1.520796 :1.000000
3.191593 3.091593 1.520796 1.520796 :1.000000
3.091593 3.191593 1.520796 1.520796 :1.000000
3.091593 3.091593 1.620796 1.520796 :1.000000
3.091593 3.091593 1.520796 1.620796 :1.000000
Initial Simplex     0.046878s 
3.141593 3.141593 1.570796 1.570796 :1.000000
3.166593 3.116593 1.545796 1.545796 :1.000000
3.116593 3.166593 1.545796 1.545796 :1.000000
3.116593 3.116593 1.595796 1.545796 :1.000000
3.116593 3.116593 1.545796 1.595796 :1.000000
B 1.000000     0.152507s 
The minimum was found at
3.141593 3.141593 1.570796 1.570796 
Best 1.000000
Probabilities:
0.500000
0.500000
Nelder-Mead 3
Initial Simplex: 
3.091593 3.091593 3.091593 1.520796 1.520796 1.520796 :1.000000
3.191593 3.091593 3.091593 1.520796 1.520796 1.520796 :1.000000
3.091593 3.191593 3.091593 1.520796 1.520796 1.520796 :1.000000
3.091593 3.091593 3.191593 1.520796 1.520796 1.520796 :1.000000
3.091593 3.091593 3.091593 1.620796 1.520796 1.520796 :1.000000
3.091593 3.091593 3.091593 1.520796 1.620796 1.520796 :1.000000
3.091593 3.091593 3.091593 1.520796 1.520796 1.620796 :1.000000
Initial Simplex     0.094702s 
3.091593 3.091593 3.091593 1.520796 1.520796 1.520796 :1.000000
3.191593 3.091593 3.091593 1.520796 1.520796 1.520796 :1.000000
3.091593 3.191593 3.091593 1.520796 1.520796 1.520796 :1.000000
3.091593 3.091593 3.191593 1.520796 1.520796 1.520796 :1.000000
3.091593 3.091593 3.091593 1.620796 1.520796 1.520796 :1.000000
3.091593 3.091593 3.091593 1.520796 1.620796 1.520796 :1.000000
3.124926 3.124926 3.124926 1.554130 1.554130 1.420796 :1.000000
B 1.000000     0.119124s 
The minimum was found at
3.091593 3.091593 3.091593 1.520796 1.520796 1.520796 
Best 1.000000
Probabilities:
0.500000
0.500000
Nelder-Mead 4
Initial Simplex: 
3.091593 3.091593 3.091593 3.091593 1.520796 1.520796 1.520796 1.520796 :1.000000
3.191593 3.091593 3.091593 3.091593 1.520796 1.520796 1.520796 1.520796 :1.000000
3.091593 3.191593 3.091593 3.091593 1.520796 1.520796 1.520796 1.520796 :1.000000
3.091593 3.091593 3.191593 3.091593 1.520796 1.520796 1.520796 1.520796 :1.000000
3.091593 3.091593 3.091593 3.191593 1.520796 1.520796 1.520796 1.520796 :1.000000
3.091593 3.091593 3.091593 3.091593 1.620796 1.520796 1.520796 1.520796 :1.000000
3.091593 3.091593 3.091593 3.091593 1.520796 1.620796 1.520796 1.520796 :1.000000
3.091593 3.091593 3.091593 3.091593 1.520796 1.520796 1.620796 1.520796 :1.000000
3.091593 3.091593 3.091593 3.091593 1.520796 1.520796 1.520796 1.620796 :1.000000
Initial Simplex     0.161218s 
3.091593 3.091593 3.091593 3.091593 1.520796 1.520796 1.520796 1.520796 :1.000000
3.191593 3.091593 3.091593 3.091593 1.520796 1.520796 1.520796 1.520796 :1.000000
3.091593 3.191593 3.091593 3.091593 1.520796 1.520796 1.520796 1.520796 :1.000000
3.091593 3.091593 3.191593 3.091593 1.520796 1.520796 1.520796 1.520796 :1.000000
3.091593 3.091593 3.091593 3.191593 1.520796 1.520796 1.520796 1.520796 :1.000000
3.091593 3.091593 3.091593 3.091593 1.620796 1.520796 1.520796 1.520796 :1.000000
3.091593 3.091593 3.091593 3.091593 1.520796 1.620796 1.520796 1.520796 :1.000000
3.116593 3.116593 3.116593 3.116593 1.545796 1.545796 1.420796 1.545796 :1.000000
3.091593 3.091593 3.091593 3.091593 1.520796 1.520796 1.520796 1.620796 :1.000000
B 1.000000     0.197654s 
The minimum was found at
3.091593 3.091593 3.091593 3.091593 1.520796 1.520796 1.520796 1.520796 
Best 1.000000
Probabilities:
0.500000
0.500000
Nelder-Mead 5
Initial Simplex: 
3.091593 3.091593 3.091593 3.091593 3.091593 1.520796 1.520796 1.520796 1.520796 1.520796 :1.000000
3.191593 3.091593 3.091593 3.091593 3.091593 1.520796 1.520796 1.520796 1.520796 1.520796 :1.000000
3.091593 3.191593 3.091593 3.091593 3.091593 1.520796 1.520796 1.520796 1.520796 1.520796 :1.000000
3.091593 3.091593 3.191593 3.091593 3.091593 1.520796 1.520796 1.520796 1.520796 1.520796 :1.000000
3.091593 3.091593 3.091593 3.191593 3.091593 1.520796 1.520796 1.520796 1.520796 1.520796 :1.000000
3.091593 3.091593 3.091593 3.091593 3.191593 1.520796 1.520796 1.520796 1.520796 1.520796 :1.000000
3.091593 3.091593 3.091593 3.091593 3.091593 1.620796 1.520796 1.520796 1.520796 1.520796 :1.000000
3.091593 3.091593 3.091593 3.091593 3.091593 1.520796 1.620796 1.520796 1.520796 1.520796 :1.000000
3.091593 3.091593 3.091593 3.091593 3.091593 1.520796 1.520796 1.620796 1.520796 1.520796 :1.000000
3.091593 3.091593 3.091593 3.091593 3.091593 1.520796 1.520796 1.520796 1.620796 1.520796 :1.000000
3.091593 3.091593 3.091593 3.091593 3.091593 1.520796 1.520796 1.520796 1.520796 1.620796 :1.000000
Initial Simplex     0.245050s 
3.091593 3.091593 3.091593 3.091593 3.091593 1.520796 1.520796 1.520796 1.520796 1.520796 :1.000000
3.191593 3.091593 3.091593 3.091593 3.091593 1.520796 1.520796 1.520796 1.520796 1.520796 :1.000000
3.091593 3.191593 3.091593 3.091593 3.091593 1.520796 1.520796 1.520796 1.520796 1.520796 :1.000000
3.091593 3.091593 3.191593 3.091593 3.091593 1.520796 1.520796 1.520796 1.520796 1.520796 :1.000000
3.091593 3.091593 3.091593 3.191593 3.091593 1.520796 1.520796 1.520796 1.520796 1.520796 :1.000000
3.091593 3.091593 3.091593 3.091593 3.191593 1.520796 1.520796 1.520796 1.520796 1.520796 :1.000000
3.091593 3.091593 3.091593 3.091593 3.091593 1.620796 1.520796 1.520796 1.520796 1.520796 :1.000000
3.091593 3.091593 3.091593 3.091593 3.091593 1.520796 1.620796 1.520796 1.520796 1.520796 :1.000000
3.106593 3.106593 3.106593 3.106593 3.106593 1.535796 1.535796 1.470796 1.535796 1.535796 :1.000000
3.091593 3.091593 3.091593 3.091593 3.091593 1.520796 1.520796 1.520796 1.620796 1.520796 :1.000000
3.091593 3.091593 3.091593 3.091593 3.091593 1.520796 1.520796 1.520796 1.520796 1.620796 :1.000000
B 1.000000     0.309321s 
The minimum was found at
3.091593 3.091593 3.091593 3.091593 3.091593 1.520796 1.520796 1.520796 1.520796 1.520796 
Best 1.000000
Probabilities:
0.500000
0.500000
Nelder-Mead 6
Initial Simplex: 
3.091593 3.091593 3.091593 3.091593 3.091593 3.091593 1.520796 1.520796 1.520796 1.520796 1.520796 1.520796 :1.000000
3.191593 3.091593 3.091593 3.091593 3.091593 3.091593 1.520796 1.520796 1.520796 1.520796 1.520796 1.520796 :1.000000
3.091593 3.191593 3.091593 3.091593 3.091593 3.091593 1.520796 1.520796 1.520796 1.520796 1.520796 1.520796 :1.000000
3.091593 3.091593 3.191593 3.091593 3.091593 3.091593 1.520796 1.520796 1.520796 1.520796 1.520796 1.520796 :1.000000
3.091593 3.091593 3.091593 3.191593 3.091593 3.091593 1.520796 1.520796 1.520796 1.520796 1.520796 1.520796 :1.000000
3.091593 3.091593 3.091593 3.091593 3.191593 3.091593 1.520796 1.520796 1.520796 1.520796 1.520796 1.520796 :1.000000
3.091593 3.091593 3.091593 3.091593 3.091593 3.191593 1.520796 1.520796 1.520796 1.520796 1.520796 1.520796 :1.000000
3.091593 3.091593 3.091593 3.091593 3.091593 3.091593 1.620796 1.520796 1.520796 1.520796 1.520796 1.520796 :1.000000
3.091593 3.091593 3.091593 3.091593 3.091593 3.091593 1.520796 1.620796 1.520796 1.520796 1.520796 1.520796 :1.000000
3.091593 3.091593 3.091593 3.091593 3.091593 3.091593 1.520796 1.520796 1.620796 1.520796 1.520796 1.520796 :1.000000
3.091593 3.091593 3.091593 3.091593 3.091593 3.091593 1.520796 1.520796 1.520796 1.620796 1.520796 1.520796 :1.000000
3.091593 3.091593 3.091593 3.091593 3.091593 3.091593 1.520796 1.520796 1.520796 1.520796 1.620796 1.520796 :1.000000
3.091593 3.091593 3.091593 3.091593 3.091593 3.091593 1.520796 1.520796 1.520796 1.520796 1.520796 1.620796 :1.000000
Initial Simplex     0.346098s 
3.091593 3.091593 3.091593 3.091593 3.091593 3.091593 1.520796 1.520796 1.520796 1.520796 1.520796 1.520796 :1.000000
3.141593 3.091593 3.091593 3.091593 3.091593 3.091593 1.520796 1.520796 1.520796 1.520796 1.520796 1.520796 :1.000000
3.091593 3.141593 3.091593 3.091593 3.091593 3.091593 1.520796 1.520796 1.520796 1.520796 1.520796 1.520796 :1.000000
3.091593 3.091593 3.141593 3.091593 3.091593 3.091593 1.520796 1.520796 1.520796 1.520796 1.520796 1.520796 :1.000000
3.091593 3.091593 3.091593 3.141593 3.091593 3.091593 1.520796 1.520796 1.520796 1.520796 1.520796 1.520796 :1.000000
3.091593 3.091593 3.091593 3.091593 3.141593 3.091593 1.520796 1.520796 1.520796 1.520796 1.520796 1.520796 :1.000000
3.091593 3.091593 3.091593 3.091593 3.091593 3.141593 1.520796 1.520796 1.520796 1.520796 1.520796 1.520796 :1.000000
3.091593 3.091593 3.091593 3.091593 3.091593 3.091593 1.570796 1.520796 1.520796 1.520796 1.520796 1.520796 :1.000000
3.091593 3.091593 3.091593 3.091593 3.091593 3.091593 1.520796 1.570796 1.520796 1.520796 1.520796 1.520796 :1.000000
3.091593 3.091593 3.091593 3.091593 3.091593 3.091593 1.520796 1.520796 1.570796 1.520796 1.520796 1.520796 :1.000000
3.091593 3.091593 3.091593 3.091593 3.091593 3.091593 1.520796 1.520796 1.520796 1.570796 1.520796 1.520796 :1.000000
3.091593 3.091593 3.091593 3.091593 3.091593 3.091593 1.520796 1.520796 1.520796 1.520796 1.570796 1.520796 :1.000000
1.545796 1.545796 3.091593 3.091593 3.091593 2.306194 1.520796 1.520796 1.570796 1.520796 1.520796 0.760398 :1.000000
B 1.000000     0.848254s 
The minimum was found at
3.091593 3.091593 3.091593 3.091593 3.091593 3.091593 1.520796 1.520796 1.520796 1.520796 1.520796 1.520796 
Best 1.000000
Probabilities:
0.500000
0.500000
Monte-Carlo 1
W 0 1.000000     0.005992s 
B 0 1.000000     0.006011s 
W 1 1.000000     0.012437s 
B 3 1.000000     0.024471s 
B 4 1.000000     0.030605s 
B 8 1.000000     0.056973s 
W 15 1.000000     0.102284s 
B 48 1.000000     0.261005s 
B 56 1.000000     0.298094s 
W 109 1.000000     0.547784s 
Worst 1.000000
Best 1.000000
Probabilities:
0.500000
0.500000
Monte-Carlo 2
W 0 1.000000     0.009585s 
B 0 1.000000     0.009593s 
B 1 1.000000     0.019136s 
B 2 1.000000     0.028552s 
W 10 1.000000     0.100860s 
B 28 1.000000     0.264118s 
W 57 1.000000     0.562357s 
W 113 1.000000     1.068453s 
B 126 1.000000     1.187757s 
Worst 1.000000
Best 1.000000
Probabilities:
0.500000
0.500000
Monte-Carlo 3
W 0 1.000000     0.013144s 
B 0 1.000000     0.013154s 
W 1 1.000000     0.027204s 
B 3 1.000000     0.053763s 
B 4 1.000000     0.067339s 
W 6 1.000000     0.095064s 
B 16 1.000000     0.229291s 
B 46 1.000000     0.677030s 
W 100 1.000000     1.406699s 
Worst 1.000000
Best 1.000000
Probabilities:
0.500000
0.500000
Monte-Carlo 4
W 0 1.000000     0.017799s 
B 0 1.000000     0.017811s 
B 1 1.000000     0.035373s 
W 7 1.000000     0.143990s 
B 11 1.000000     0.216359s 
B 44 1.000000     0.816884s 
B 51 1.000000     0.945192s 
B 88 1.000000     1.629287s 
Worst 1.000000
Best 1.000000
Probabilities:
0.500000
0.500000
Monte-Carlo 5
W 0 1.000000     0.022309s 
B 0 1.000000     0.022321s 
B 1 1.000000     0.045354s 
B 5 1.000000     0.134492s 
B 18 1.000000     0.449983s 
W 39 1.000000     0.931195s 
W 55 1.000000     1.316478s 
B 73 1.000000     1.732396s 
W 76 1.000000     1.800656s 
Worst 1.000000
Best 1.000000
Probabilities:
0.500000
0.500000
Monte-Carlo 6
W 0 1.000000     0.026790s 
B 0 1.000000     0.026806s 
W 1 1.000000     0.054172s 
B 2 1.000000     0.081329s 
W 16 1.000000     0.502237s 
W 33 1.000000     0.964999s 
B 75 1.000000     2.164557s 
Worst 1.000000
Best 1.000000
Probabilities:
0.500000
0.500000
Optimisation:    14.489279s 
