MPISize: 1
graphSize: 2
probability: 0.500000
Graph A:
0
1
1
0
Graph B:
1
1
1
0
Graph Gen:     0.000014s 
1 1 
Operator C Gen:     0.000008s 
operatorB2.gz
Operator B Gen:     0.000187s 
Nelder-Mead 1
Initial Simplex: 
0.258819 0.258819 :1.000000
0.965926 0.258819 :1.000000
0.258819 0.965926 :1.000000
Initial Simplex     0.012723s 
0.258819 0.258819 :1.000000
0.965926 0.258819 :1.000000
0.965926 0.000000 :1.000000
B 1.000000     0.020414s 
The minimum was found at
0.258819 0.258819 
Best 1.000000
Probabilities:
0.500000
0.500000
Nelder-Mead 2
Initial Simplex: 
0.218508 0.218508 0.218508 0.218508 :1.000000
0.925615 0.218508 0.218508 0.218508 :1.000000
0.218508 0.925615 0.218508 0.218508 :1.000000
0.218508 0.218508 0.925615 0.218508 :1.000000
0.218508 0.218508 0.218508 0.925615 :1.000000
Initial Simplex     0.037678s 
0.218508 0.218508 0.218508 0.218508 :1.000000
0.572061 0.218508 0.218508 0.218508 :1.000000
0.109254 0.109254 0.109254 0.109254 :1.000000
0.218508 0.218508 0.572061 0.218508 :1.000000
0.218508 0.218508 0.218508 0.572061 :1.000000
B 1.000000     0.120626s 
The minimum was found at
0.218508 0.218508 0.218508 0.218508 
Best 1.000000
Probabilities:
0.500000
0.500000
Nelder-Mead 3
Initial Simplex: 
0.193954 0.193954 0.193954 0.193954 0.193954 0.193954 :1.000000
0.901060 0.193954 0.193954 0.193954 0.193954 0.193954 :1.000000
0.193954 0.901060 0.193954 0.193954 0.193954 0.193954 :1.000000
0.193954 0.193954 0.901060 0.193954 0.193954 0.193954 :1.000000
0.193954 0.193954 0.193954 0.901060 0.193954 0.193954 :1.000000
0.193954 0.193954 0.193954 0.193954 0.901060 0.193954 :1.000000
0.193954 0.193954 0.193954 0.193954 0.193954 0.901060 :1.000000
Initial Simplex     0.080483s 
0.429656 0.429656 0.429656 0.429656 0.429656 0.429656 :1.000000
0.665358 0.311805 0.311805 0.311805 0.311805 0.311805 :1.000000
0.311805 0.665358 0.311805 0.311805 0.311805 0.311805 :1.000000
0.311805 0.311805 0.665358 0.311805 0.311805 0.311805 :1.000000
0.311805 0.311805 0.311805 0.665358 0.311805 0.311805 :1.000000
0.311805 0.311805 0.311805 0.311805 0.665358 0.311805 :1.000000
0.311805 0.311805 0.311805 0.311805 0.311805 0.665358 :1.000000
B 1.000000     0.233199s 
The minimum was found at
0.429656 0.429656 0.429656 0.429656 0.429656 0.429656 
Best 1.000000
Probabilities:
0.500000
0.500000
Nelder-Mead 4
Initial Simplex: 
0.176777 0.176777 0.176777 0.176777 0.176777 0.176777 0.176777 0.176777 :1.000000
0.883883 0.176777 0.176777 0.176777 0.176777 0.176777 0.176777 0.176777 :1.000000
0.176777 0.883883 0.176777 0.176777 0.176777 0.176777 0.176777 0.176777 :1.000000
0.176777 0.176777 0.883883 0.176777 0.176777 0.176777 0.176777 0.176777 :1.000000
0.176777 0.176777 0.176777 0.883883 0.176777 0.176777 0.176777 0.176777 :1.000000
0.176777 0.176777 0.176777 0.176777 0.883883 0.176777 0.176777 0.176777 :1.000000
0.176777 0.176777 0.176777 0.176777 0.176777 0.883883 0.176777 0.176777 :1.000000
0.176777 0.176777 0.176777 0.176777 0.176777 0.176777 0.883883 0.176777 :1.000000
0.176777 0.176777 0.176777 0.176777 0.176777 0.176777 0.176777 0.883883 :1.000000
Initial Simplex     0.132269s 
0.176777 0.176777 0.176777 0.176777 0.176777 0.176777 0.176777 0.176777 :1.000000
0.000000 0.353553 0.353553 0.353553 0.353553 0.353553 0.353553 0.353553 :1.000000
0.176777 0.883883 0.176777 0.176777 0.176777 0.176777 0.176777 0.176777 :1.000000
0.176777 0.176777 0.883883 0.176777 0.176777 0.176777 0.176777 0.176777 :1.000000
0.176777 0.176777 0.176777 0.883883 0.176777 0.176777 0.176777 0.176777 :1.000000
0.176777 0.176777 0.176777 0.176777 0.883883 0.176777 0.176777 0.176777 :1.000000
0.176777 0.176777 0.176777 0.176777 0.176777 0.883883 0.176777 0.176777 :1.000000
0.176777 0.176777 0.176777 0.176777 0.176777 0.176777 0.883883 0.176777 :1.000000
0.176777 0.176777 0.176777 0.176777 0.176777 0.176777 0.176777 0.883883 :1.000000
B 1.000000     0.162857s 
The minimum was found at
0.176777 0.176777 0.176777 0.176777 0.176777 0.176777 0.176777 0.176777 
Best 1.000000
Probabilities:
0.500000
0.500000
Nelder-Mead 5
Initial Simplex: 
0.163810 0.163810 0.163810 0.163810 0.163810 0.163810 0.163810 0.163810 0.163810 0.163810 :1.000000
0.870917 0.163810 0.163810 0.163810 0.163810 0.163810 0.163810 0.163810 0.163810 0.163810 :1.000000
0.163810 0.870917 0.163810 0.163810 0.163810 0.163810 0.163810 0.163810 0.163810 0.163810 :1.000000
0.163810 0.163810 0.870917 0.163810 0.163810 0.163810 0.163810 0.163810 0.163810 0.163810 :1.000000
0.163810 0.163810 0.163810 0.870917 0.163810 0.163810 0.163810 0.163810 0.163810 0.163810 :1.000000
0.163810 0.163810 0.163810 0.163810 0.870917 0.163810 0.163810 0.163810 0.163810 0.163810 :1.000000
0.163810 0.163810 0.163810 0.163810 0.163810 0.870917 0.163810 0.163810 0.163810 0.163810 :1.000000
0.163810 0.163810 0.163810 0.163810 0.163810 0.163810 0.870917 0.163810 0.163810 0.163810 :1.000000
0.163810 0.163810 0.163810 0.163810 0.163810 0.163810 0.163810 0.870917 0.163810 0.163810 :1.000000
0.163810 0.163810 0.163810 0.163810 0.163810 0.163810 0.163810 0.163810 0.870917 0.163810 :1.000000
0.163810 0.163810 0.163810 0.163810 0.163810 0.163810 0.163810 0.163810 0.163810 0.870917 :1.000000
Initial Simplex     0.244509s 
0.163810 0.163810 0.163810 0.163810 0.163810 0.163810 0.163810 0.163810 0.163810 0.163810 :1.000000
0.870917 0.163810 0.163810 0.163810 0.163810 0.163810 0.163810 0.163810 0.163810 0.163810 :1.000000
0.163810 0.870917 0.163810 0.163810 0.163810 0.163810 0.163810 0.163810 0.163810 0.163810 :1.000000
0.163810 0.163810 0.870917 0.163810 0.163810 0.163810 0.163810 0.163810 0.163810 0.163810 :1.000000
0.163810 0.163810 0.163810 0.870917 0.163810 0.163810 0.163810 0.163810 0.163810 0.163810 :1.000000
0.163810 0.163810 0.163810 0.163810 0.870917 0.163810 0.163810 0.163810 0.163810 0.163810 :1.000000
0.163810 0.163810 0.163810 0.163810 0.163810 0.870917 0.163810 0.163810 0.163810 0.163810 :1.000000
0.117260 0.117260 0.338231 0.338231 0.338231 0.338231 0.302876 0.338231 0.117260 0.117260 :1.000000
0.163810 0.163810 0.163810 0.163810 0.163810 0.163810 0.163810 0.870917 0.163810 0.163810 :1.000000
0.163810 0.163810 0.163810 0.163810 0.163810 0.163810 0.163810 0.163810 0.870917 0.163810 :1.000000
0.163810 0.163810 0.163810 0.163810 0.163810 0.163810 0.163810 0.163810 0.163810 0.870917 :1.000000
B 1.000000     0.300933s 
The minimum was found at
0.163810 0.163810 0.163810 0.163810 0.163810 0.163810 0.163810 0.163810 0.163810 0.163810 
Best 1.000000
Probabilities:
0.500000
0.500000
Nelder-Mead 6
Initial Simplex: 
0.153534 0.153534 0.153534 0.153534 0.153534 0.153534 0.153534 0.153534 0.153534 0.153534 0.153534 0.153534 :1.000000
0.860640 0.153534 0.153534 0.153534 0.153534 0.153534 0.153534 0.153534 0.153534 0.153534 0.153534 0.153534 :1.000000
0.153534 0.860640 0.153534 0.153534 0.153534 0.153534 0.153534 0.153534 0.153534 0.153534 0.153534 0.153534 :1.000000
0.153534 0.153534 0.860640 0.153534 0.153534 0.153534 0.153534 0.153534 0.153534 0.153534 0.153534 0.153534 :1.000000
0.153534 0.153534 0.153534 0.860640 0.153534 0.153534 0.153534 0.153534 0.153534 0.153534 0.153534 0.153534 :1.000000
0.153534 0.153534 0.153534 0.153534 0.860640 0.153534 0.153534 0.153534 0.153534 0.153534 0.153534 0.153534 :1.000000
0.153534 0.153534 0.153534 0.153534 0.153534 0.860640 0.153534 0.153534 0.153534 0.153534 0.153534 0.153534 :1.000000
0.153534 0.153534 0.153534 0.153534 0.153534 0.153534 0.860640 0.153534 0.153534 0.153534 0.153534 0.153534 :1.000000
0.153534 0.153534 0.153534 0.153534 0.153534 0.153534 0.153534 0.860640 0.153534 0.153534 0.153534 0.153534 :1.000000
0.153534 0.153534 0.153534 0.153534 0.153534 0.153534 0.153534 0.153534 0.860640 0.153534 0.153534 0.153534 :1.000000
0.153534 0.153534 0.153534 0.153534 0.153534 0.153534 0.153534 0.153534 0.153534 0.860640 0.153534 0.153534 :1.000000
0.153534 0.153534 0.153534 0.153534 0.153534 0.153534 0.153534 0.153534 0.153534 0.153534 0.860640 0.153534 :1.000000
0.153534 0.153534 0.153534 0.153534 0.153534 0.153534 0.153534 0.153534 0.153534 0.153534 0.153534 0.860640 :1.000000
Initial Simplex     0.288115s 
0.000000 0.000000 0.234521 0.234521 0.234521 0.234521 0.163810 0.234521 0.234521 0.234521 0.000000 0.000000 :1.000000
0.430320 0.076767 0.194027 0.194027 0.194027 0.194027 0.158672 0.194027 0.194027 0.194027 0.076767 0.076767 :1.000000
0.076767 0.430320 0.194027 0.194027 0.194027 0.194027 0.158672 0.194027 0.194027 0.194027 0.076767 0.076767 :1.000000
0.076767 0.076767 0.547581 0.194027 0.194027 0.194027 0.158672 0.194027 0.194027 0.194027 0.076767 0.076767 :1.000000
0.076767 0.076767 0.194027 0.547581 0.194027 0.194027 0.158672 0.194027 0.194027 0.194027 0.076767 0.076767 :1.000000
0.076767 0.076767 0.194027 0.194027 0.547581 0.194027 0.158672 0.194027 0.194027 0.194027 0.076767 0.076767 :1.000000
0.076767 0.076767 0.194027 0.194027 0.194027 0.547581 0.158672 0.194027 0.194027 0.194027 0.076767 0.076767 :1.000000
0.076767 0.076767 0.194027 0.194027 0.194027 0.194027 0.512225 0.194027 0.194027 0.194027 0.076767 0.076767 :1.000000
0.076767 0.076767 0.194027 0.194027 0.194027 0.194027 0.158672 0.547581 0.194027 0.194027 0.076767 0.076767 :1.000000
0.076767 0.076767 0.194027 0.194027 0.194027 0.194027 0.158672 0.194027 0.547581 0.194027 0.076767 0.076767 :1.000000
0.076767 0.076767 0.194027 0.194027 0.194027 0.194027 0.158672 0.194027 0.194027 0.547581 0.076767 0.076767 :1.000000
0.076767 0.076767 0.194027 0.194027 0.194027 0.194027 0.158672 0.194027 0.194027 0.194027 0.430320 0.076767 :1.000000
0.076767 0.076767 0.194027 0.194027 0.194027 0.194027 0.158672 0.194027 0.194027 0.194027 0.076767 0.430320 :1.000000
B 1.000000     0.737556s 
The minimum was found at
0.000000 0.000000 0.234521 0.234521 0.234521 0.234521 0.163810 0.234521 0.234521 0.234521 0.000000 0.000000 
Best 1.000000
Probabilities:
0.500000
0.500000
Monte-Carlo 1
W 0 1.000000     0.004472s 
B 0 1.000000     0.004479s 
B 1 1.000000     0.009392s 
W 5 1.000000     0.027521s 
Worst 1.000000
Best 1.000000
Probabilities:
0.500000
0.500000
Monte-Carlo 2
W 0 1.000000     0.008260s 
B 0 1.000000     0.008271s 
W 1 1.000000     0.018025s 
B 3 1.000000     0.035791s 
W 16 1.000000     0.154419s 
B 22 1.000000     0.207027s 
W 30 1.000000     0.278774s 
Worst 1.000000
Best 1.000000
Probabilities:
0.500000
0.500000
Monte-Carlo 3
W 0 1.000000     0.013205s 
B 0 1.000000     0.013215s 
W 1 1.000000     0.025615s 
B 15 1.000000     0.218071s 
W 24 1.000000     0.338282s 
W 112 1.000000     1.528541s 
Worst 1.000000
Best 1.000000
Probabilities:
0.500000
0.500000
Monte-Carlo 4
W 0 1.000000     0.019147s 
B 0 1.000000     0.019158s 
W 1 1.000000     0.038420s 
W 2 1.000000     0.056605s 
B 17 1.000000     0.336295s 
B 25 1.000000     0.481459s 
B 35 1.000000     0.660778s 
Worst 1.000000
Best 1.000000
Probabilities:
0.500000
0.500000
Monte-Carlo 5
W 0 1.000000     0.026170s 
B 0 1.000000     0.026189s 
W 1 1.000000     0.052883s 
B 2 1.000000     0.081937s 
B 3 1.000000     0.105233s 
B 5 1.000000     0.151425s 
W 9 1.000000     0.244224s 
B 46 1.000000     1.102066s 
B 71 1.000000     1.664802s 
W 81 1.000000     1.896419s 
B 103 1.000000     2.407006s 
W 111 1.000000     2.589523s 
B 117 1.000000     2.726729s 
Worst 1.000000
Best 1.000000
Probabilities:
0.500000
0.500000
Monte-Carlo 6
W 0 1.000000     0.031060s 
B 0 1.000000     0.031078s 
W 1 1.000000     0.062448s 
B 2 1.000000     0.093303s 
B 3 1.000000     0.131017s 
B 5 1.000000     0.194180s 
B 8 1.000000     0.277454s 
B 10 1.000000     0.332559s 
B 20 1.000000     0.603494s 
B 41 1.000000     1.170692s 
W 58 1.000000     1.663898s 
B 68 1.000000     1.932566s 
Worst 1.000000
Best 1.000000
Probabilities:
0.500000
0.500000
Optimisation:    14.097855s 
